\relax 
\catcode`"\active
\catcode`<\active
\catcode`>\active
\@nameuse{es@quoting}
\select@language{spanish}
\@writefile{toc}{\select@language{spanish}}
\@writefile{lof}{\select@language{spanish}}
\@writefile{lot}{\select@language{spanish}}
\@writefile{toc}{\contentsline {section}{\numberline {1}Especificacion}{1}}
\@writefile{toc}{\contentsline {section}{\numberline {2}Implementacion}{4}}
\@writefile{toc}{\contentsline {subsection}{\numberline {2.1}Main.java}{4}}
\@writefile{lol}{\contentsline {lstlisting}{../src/tpalgo1/Main.java}{4}}
\@writefile{toc}{\contentsline {subsection}{\numberline {2.2}Juego.java}{4}}
\@writefile{lol}{\contentsline {lstlisting}{../src/tpalgo1/Juego.java}{5}}
\@writefile{toc}{\contentsline {subsection}{\numberline {2.3}Tablero.java}{11}}
\@writefile{lol}{\contentsline {lstlisting}{../src/tpalgo1/Tablero.java}{11}}
\@writefile{toc}{\contentsline {subsection}{\numberline {2.4}Personaje.java}{11}}
\@writefile{lol}{\contentsline {lstlisting}{../src/tpalgo1/Personaje.java}{11}}
\@writefile{toc}{\contentsline {subsection}{\numberline {2.5}Habilidad.java}{14}}
\@writefile{lol}{\contentsline {lstlisting}{../src/tpalgo1/Habilidad.java}{14}}
\@writefile{toc}{\contentsline {subsection}{\numberline {2.6}TipoHabilidad.java}{15}}
\@writefile{lol}{\contentsline {lstlisting}{../src/tpalgo1/TipoHabilidad.java}{15}}
\@writefile{toc}{\contentsline {subsection}{\numberline {2.7}Posicion.java}{15}}
\@writefile{lol}{\contentsline {lstlisting}{../src/tpalgo1/Posicion.java}{15}}
\@writefile{toc}{\contentsline {subsection}{\numberline {2.8}LeerUtil.java}{16}}
\@writefile{lol}{\contentsline {lstlisting}{../src/tpalgo1/LeerUtil.java}{16}}
\@writefile{toc}{\contentsline {subsection}{\numberline {2.9}Juego2.txt}{16}}
\@writefile{lol}{\contentsline {lstlisting}{../src/Juego2.txt}{16}}
\@writefile{toc}{\contentsline {subsection}{\numberline {2.10}SJuego2.txt}{16}}
\@writefile{lol}{\contentsline {lstlisting}{../src/SJuego2.txt}{16}}
